week_2/07-fixed_priority_arbiter/transcript
# do sim.do
# vsim -c work.tb_fixed_priority_arbiter 
# Start time: 13:37:13 on Apr 25,2025
# Loading sv_std.std
# Loading work.tb_fixed_priority_arbiter
# Loading work.fixed_priority_arbiter
# ---------------------------------------------
# T = 1 | req = 0000 | grant = 0000
# T = 2 | req = 0001 | grant = 0001
# T = 3 | req = 0010 | grant = 0010
# T = 4 | req = 0011 | grant = 0001
# T = 5 | req = 0100 | grant = 0100
# T = 6 | req = 0101 | grant = 0001
# T = 7 | req = 0110 | grant = 0010
# T = 8 | req = 0111 | grant = 0001
# T = 9 | req = 1000 | grant = 1000
# T = 10 | req = 1001 | grant = 0001
# T = 11 | req = 1010 | grant = 0010
# T = 12 | req = 1011 | grant = 0001
# T = 13 | req = 1100 | grant = 0100
# T = 14 | req = 1101 | grant = 0001
# T = 15 | req = 1110 | grant = 0010
# T = 16 | req = 1111 | grant = 0001
# ---------------------------------------------
# ** Note: $finish    : tb_fixed_priority_arbiter.sv(22)
#    Time: 16 ps  Iteration: 0  Instance: /tb_fixed_priority_arbiter
# End time: 13:37:13 on Apr 25,2025, Elapsed time: 0:00:00
# Errors: 0, Warnings: 0
