risc-v/transcript
# do sim.do
# vsim -c work.tb_cpu 
# Start time: 20:50:54 on May 05,2025
# Loading sv_std.std
# Loading work.tb_cpu
# Loading work.all_pkgs
# Loading work.cpu_single_cycle_sv_unit
# Loading work.cpu_single_cycle
# Loading work.pc_register_sv_unit
# Loading work.pc_register
# Loading work.instr_mem_sv_unit
# Loading work.instr_mem
# Loading work.decoder_sv_unit
# Loading work.decoder
# Loading work.regfile_sv_unit
# Loading work.regfile
# Loading work.alu_sv_unit
# Loading work.alu
# Loading work.alu_ctrl_sv_unit
# Loading work.alu_ctrl
# Loading work.data_mem_sv_unit
# Loading work.data_mem
# Loading work.writeback_mux_sv_unit
# Loading work.writeback_mux
# Loading work.control_unit_sv_unit
# Loading work.control_unit
# ---------------------------------------------
# 
# R-TYPE:
# -------
# PC = 0 | INSTR = 00000000001000001000001010110011 | OPCODE = 0110011 | alu_result = 30
# PC = 4 | INSTR = 00000000001100101000001100110011 | OPCODE = 0110011 | alu_result = 37
# PC = 8 | INSTR = 00000000000000000000000000000000 | OPCODE = 0000000 | alu_result = 0
# ------- add x5, x1, x2: -------
# T = 35 | x5 = x1 + x2 = 30
# ------- add x6, x5, x3: -------
# T = 35 | x6 = x5 + x3 = 37
# 
# I-TYPE:
# -------
# PC = 12 | INSTR = 00000000010100001000000100010011 | OPCODE = 0010011 | alu_result = 47
# PC = 16 | INSTR = 00000000001100001010010000100011 | OPCODE = 0100011 | alu_result = 50
# ------- addi x2, x1, 5: -------
# T = 55 | x1 = 42
# T = 55 | x2 = x1 + 5 = 47
# 
# S-TYPE:
# -------
# PC = 20 | INSTR = 00000000000000000010000000100011 | OPCODE = 0100011 | alu_result = 0
# PC = 24 | INSTR = 00000000000000000010001010000011 | OPCODE = 0000011 | alu_result = 0
# ------- sw x3, 8(x1): -------
# T = 75 | x3 = 7 | x1 = 42 | offset = 8
# MEM[x1+8] = 7
# ------- sw x0, 0(x0): -------
# T = 75 | x0 = 0 | offset = 0 
# MEM[x0+0] = 0
# 
# I-LOAD:
# -------
# PC = 28 | INSTR = xxxxxxxxxxxxxxxxxxxxxxxxxxxxxxxx | OPCODE = xxxxxxx | alu_result = x
# ------- lw x5, 0(x0): -------
# T =  85 | x5 = 0
# 
# ---------------------------------------------
# ** Note: $finish    : D:/RTL100Challange/risc-v/tb_cpu.sv(95)
#    Time: 85 ps  Iteration: 1  Instance: /tb_cpu
# End time: 20:50:54 on May 05,2025, Elapsed time: 0:00:00
# Errors: 0, Warnings: 0
