week_1/07-lfsr/transcript
# do sim.do
# vsim -c work.tb_lfsr 
# Start time: 00:39:12 on Apr 22,2025
# Loading sv_std.std
# Loading work.tb_lfsr
# Loading work.lfsr
# -------------------------------------------
#  Time | enable| data_in	| lfst_out
#  ---- | ------| -------	| --------
#    15	| 1	| 01010101	| 01010101
#    25	| 1	| 01010101	| 00101010
#    35	| 1	| 01010101	| 00010101
#    45	| 1	| 01010101	| 10001010
#    55	| 1	| 01010101	| 01000101
#    65	| 1	| 01010101	| 00100010
#    75	| 1	| 01010101	| 00010001
#    85	| 1	| 01010101	| 00001000
#    95	| 1	| 01010101	| 00000100
#   105	| 1	| 01010101	| 10000010
#   115	| 1	| 01010101	| 01000001
#   125	| 1	| 01010101	| 10100000
#   135	| 1	| 01010101	| 01010000
#   145	| 1	| 01010101	| 10101000
#   155	| 1	| 01010101	| 01010100
#   165	| 1	| 01010101	| 00101010
#   175	| 1	| 01010101	| 00010101
#   185	| 1	| 01010101	| 10001010
#   195	| 1	| 01010101	| 01000101
#   205	| 1	| 01010101	| 00100010
# -------------------------------------------
# ** Note: $finish    : tb_lfsr.sv(35)
#    Time: 205 ps  Iteration: 1  Instance: /tb_lfsr
# End time: 00:39:12 on Apr 22,2025, Elapsed time: 0:00:00
# Errors: 0, Warnings: 0
